07-11-2017 14:46:07 T#2[0x0000314c] INFO  - --------------- START --------------
07-11-2017 14:46:07 T#2[0x0000314c] INFO  - Beginning application initialization
07-11-2017 14:46:08 T#2[0x0000314c] INFO  - -------- Vision Engine starting --------
07-11-2017 14:46:08 T#2[0x0000314c] INFO  - Engine: v.7020200-3704 [10/20/2014 @ 00:49:09], 64-bit, toolset v.1400
07-11-2017 14:46:09 T#2[0x0000314c] INFO  - Engine starting: 1000
07-11-2017 14:46:09 T#2[0x0000314c] INFO  - Engine started, will initialize
07-11-2017 14:46:10 T#2[0x0000314c] INFO  - Loading plugins starts
07-11-2017 14:46:10 T#2[0x0000314c] INFO  - Internal plugins initialized
07-11-2017 14:46:10 T#2[0x0000314c] INFO  - Plugins loaded
07-11-2017 14:46:10 T#2[0x0000314c] INFO  - Plugins initialized
07-11-2017 14:46:10 T#2[0x0000314c] INFO  - Loading plugins finished
07-11-2017 14:46:10 T#2[0x0000314c] INFO  - Engine initialized
07-11-2017 14:46:10 T#2[0x0000314c] INFO  - Load starts: C:\Olmec\ivsfiles\Station1.ivs
07-11-2017 14:46:10 T#2[0x0000314c] INFO  - Task exec mode: 6
07-11-2017 14:46:10 T#2[0x0000314c] INFO  - Loading objects & program
07-11-2017 14:46:10 T#2[0x0000314c] INFO  - Loaded all from file
07-11-2017 14:46:10 T#2[0x0000314c] INFO  - Load post-proc start
07-11-2017 14:46:10 T#2[0x0000314c] INFO  - Load post-proc end
07-11-2017 14:46:10 T#2[0x0000314c] INFO  - Load finished: C:\Olmec\ivsfiles\Station1.ivs
07-11-2017 14:46:10 T#2[0x0000314c] INFO  - Application initialization succeeded
07-11-2017 14:47:23 T#2[0x0000314c] INFO  - Collected objects
07-11-2017 14:47:23 T#2[0x0000314c] INFO  - Collected program
07-11-2017 14:47:23 T#2[0x0000314c] INFO  - Saved all to file
07-11-2017 14:47:25 T#2[0x0000314c] INFO  - Task exec mode: 7
07-11-2017 14:47:25 T#2[0x0000314c] INFO  - Plugin manager terminated
07-11-2017 14:47:25 T#2[0x0000314c] INFO  - Engine objects terminated
07-11-2017 14:47:25 T#2[0x0000314c] INFO  - Engine objects deleted
07-11-2017 14:47:25 T#2[0x0000314c] INFO  - --- Vision Engine shutdown succeeded ---
07-11-2017 14:47:25 T#2[0x0000314c] INFO  - Beginning application shutdown
07-11-2017 14:47:25 T#2[0x0000314c] INFO  - Application shutdown succeeded
07-11-2017 14:47:25 T#2[0x0000314c] INFO  - ---------------- END ---------------
07-24-2017 14:37:47 T#2[0x00001d68] INFO  - --------------- START --------------
07-24-2017 14:37:47 T#2[0x00001d68] INFO  - Beginning application initialization
07-24-2017 14:37:49 T#2[0x00001d68] INFO  - -------- Vision Engine starting --------
07-24-2017 14:37:49 T#2[0x00001d68] INFO  - Engine: v.7020200-3704 [10/20/2014 @ 00:49:09], 64-bit, toolset v.1400
07-24-2017 14:38:12 T#2[0x00000a80] INFO  - --------------- START --------------
07-24-2017 14:38:12 T#2[0x00000a80] INFO  - Beginning application initialization
07-24-2017 14:38:14 T#2[0x00000a80] INFO  - -------- Vision Engine starting --------
07-24-2017 14:38:14 T#2[0x00000a80] INFO  - Engine: v.7020200-3704 [10/20/2014 @ 00:49:09], 64-bit, toolset v.1400
07-24-2017 14:42:14 T#2[0x00001d68] INFO  - Engine starting: 1000
07-24-2017 14:42:14 T#2[0x00000a80] INFO  - Engine starting: 1000
07-24-2017 14:42:14 T#2[0x00001d68] INFO  - Engine started, will initialize
07-24-2017 14:42:14 T#2[0x00000a80] INFO  - Engine started, will initialize
07-24-2017 14:45:35 T#2[0x00001d68] INFO  - Loading plugins starts
07-24-2017 14:45:35 T#2[0x00001d68] INFO  - Internal plugins initialized
07-24-2017 14:45:36 T#2[0x00001d68] INFO  - Plugins loaded
07-24-2017 14:45:36 T#2[0x00001d68] INFO  - Plugins initialized
07-24-2017 14:45:36 T#2[0x00001d68] INFO  - Loading plugins finished
07-24-2017 14:45:36 T#2[0x00001d68] INFO  - Engine initialized
07-24-2017 14:45:39 T#2[0x00000a80] INFO  - Loading plugins starts
07-24-2017 14:45:39 T#2[0x00000a80] INFO  - Internal plugins initialized
07-24-2017 14:45:39 T#2[0x00000a80] INFO  - Plugins loaded
07-24-2017 14:45:39 T#2[0x00000a80] INFO  - Plugins initialized
07-24-2017 14:45:39 T#2[0x00000a80] INFO  - Loading plugins finished
07-24-2017 14:45:39 T#2[0x00000a80] INFO  - Engine initialized
07-24-2017 14:45:39 T#2[0x00001d68] INFO  - Load starts: C:\olmec\ivsfiles\Station1.ivs
07-24-2017 14:45:39 T#2[0x00001d68] INFO  - Task exec mode: 6
07-24-2017 14:45:39 T#2[0x00001d68] INFO  - Loading objects & program
07-24-2017 14:45:40 T#2[0x00001d68] INFO  - Loaded all from file
07-24-2017 14:45:40 T#2[0x00001d68] INFO  - Load post-proc start
07-24-2017 14:45:40 T#2[0x00001d68] INFO  - Load post-proc end
07-24-2017 14:45:40 T#2[0x00001d68] INFO  - Load finished: C:\olmec\ivsfiles\Station1.ivs
07-24-2017 14:45:40 T#2[0x00000a80] INFO  - Load starts: C:\olmec\ivsfiles\Station1.ivs
07-24-2017 14:45:40 T#2[0x00000a80] INFO  - Task exec mode: 6
07-24-2017 14:45:40 T#2[0x00000a80] INFO  - Loading objects & program
07-24-2017 14:45:40 T#2[0x00001d68] INFO  - Application initialization succeeded
07-24-2017 14:45:41 T#2[0x00000a80] INFO  - Loaded all from file
07-24-2017 14:45:41 T#2[0x00000a80] INFO  - Load post-proc start
07-24-2017 14:45:41 T#2[0x00000a80] INFO  - Load post-proc end
07-24-2017 14:45:41 T#2[0x00000a80] INFO  - Load finished: C:\olmec\ivsfiles\Station1.ivs
07-24-2017 14:45:41 T#2[0x00000a80] INFO  - Application initialization succeeded
07-24-2017 14:45:44 T#2[0x00000a80] INFO  - Task exec mode: 7
07-24-2017 14:45:44 T#2[0x00000a80] INFO  - Plugin manager terminated
07-24-2017 14:45:44 T#2[0x00000a80] INFO  - Engine objects terminated
07-24-2017 14:45:44 T#2[0x00000a80] INFO  - Engine objects deleted
07-24-2017 14:45:44 T#2[0x00000a80] INFO  - --- Vision Engine shutdown succeeded ---
07-24-2017 14:45:44 T#2[0x00000a80] INFO  - Beginning application shutdown
07-24-2017 14:45:44 T#2[0x00000a80] INFO  - Application shutdown succeeded
07-24-2017 14:45:44 T#2[0x00000a80] INFO  - ---------------- END ---------------
07-24-2017 14:45:45 T#2[0x00001d68] INFO  - Set exec mode:  0
07-24-2017 14:45:45 T#7[0x000014f8] INFO  - MainJsEngine compiling and storing script rstVariables
07-24-2017 14:45:45 T#7[0x000014f8] INFO  - MainJsEngine enabled execution
07-24-2017 14:45:45 T#7[0x000014f8] INFO  - MainJsEngine compiling and storing script AlasdairVariableReset
07-24-2017 14:45:45 T#7[0x000014f8] INFO  - MainJsEngine compiling and storing script SetCoordinates
07-24-2017 14:45:45 T#7[0x000014f8] INFO  - MainJsEngine compiling and storing script SetUpScript1
07-24-2017 14:45:45 T#7[0x000014f8] INFO  - MainJsEngine compiling and storing script LightingCoordsScript1
07-24-2017 14:45:45 T#7[0x000014f8] INFO  - MainJsEngine compiling and storing script lightInspectScript1
07-24-2017 14:45:45 T#7[0x000014f8] INFO  - MainJsEngine compiling and storing script EdgeDetCoordSet1
07-24-2017 14:45:45 T#7[0x000014f8] INFO  - MainJsEngine compiling and storing script StitchesInOverlap1
07-24-2017 14:45:45 T#7[0x000014f8] INFO  - MainJsEngine compiling and storing script SetUpScript2
07-24-2017 14:45:45 T#7[0x000014f8] INFO  - MainJsEngine compiling and storing script EdgeDetCoordSet2
07-24-2017 14:45:45 T#7[0x000014f8] INFO  - MainJsEngine compiling and storing script StitchesInOverlap2
07-24-2017 14:45:46 T#7[0x000014f8] INFO  - MainJsEngine compiling and storing script SetUpScript3
07-24-2017 14:45:46 T#7[0x000014f8] INFO  - MainJsEngine compiling and storing script StitchesInOverlap3
07-24-2017 14:45:46 T#7[0x000014f8] INFO  - MainJsEngine compiling and storing script SetUpScript4
07-24-2017 14:45:46 T#7[0x000014f8] INFO  - MainJsEngine compiling and storing script StitchesInOverlap4
07-24-2017 14:45:46 T#7[0x000014f8] INFO  - MainJsEngine compiling and storing script SetUpScript5
07-24-2017 14:45:46 T#7[0x000014f8] INFO  - MainJsEngine compiling and storing script StitchesInOverlap5
07-24-2017 14:45:46 T#7[0x000014f8] INFO  - MainJsEngine compiling and storing script SetUpScript6
07-24-2017 14:45:46 T#7[0x000014f8] INFO  - MainJsEngine compiling and storing script StitchesInOverlap6
07-24-2017 14:45:46 T#7[0x000014f8] INFO  - MainJsEngine compiling and storing script SetUpScript7
07-24-2017 14:45:46 T#7[0x000014f8] INFO  - MainJsEngine compiling and storing script StitchesInOverlap7
07-24-2017 14:45:46 T#7[0x000014f8] INFO  - MainJsEngine compiling and storing script SetUpScript8
07-24-2017 14:45:46 T#7[0x000014f8] INFO  - MainJsEngine compiling and storing script StitchesInOverlap8
07-24-2017 14:45:46 T#7[0x000014f8] INFO  - MainJsEngine compiling and storing script SetUpScript9
07-24-2017 14:45:46 T#7[0x000014f8] INFO  - MainJsEngine compiling and storing script StitchesInOverlap9
07-24-2017 14:45:46 T#7[0x000014f8] INFO  - MainJsEngine compiling and storing script SetUpScript10
07-24-2017 14:45:46 T#7[0x000014f8] INFO  - MainJsEngine compiling and storing script StitchesInOverlap10
07-24-2017 14:45:46 T#7[0x000014f8] INFO  - MainJsEngine compiling and storing script ExpectedStitchPositions
07-24-2017 14:45:46 T#7[0x000014f8] ERROR - Monitor: Executor - Script error detected in ExpectedStitchPositions - Image Processing : ExpectedStitchPositions
07-24-2017 14:45:46 T#7[0x000014f8] ERROR - Monitor: Executor - Halting - Image Processing : ExpectedStitchPositions
07-24-2017 14:45:46 T#7[0x000014f8] INFO  - MainJsEngine running GC
07-24-2017 14:45:50 T#2[0x00001d68] INFO  - Set exec mode:  1
07-24-2017 14:45:50 T#7[0x000014f8] INFO  - MainJsEngine compiling and storing script startup
07-24-2017 14:45:50 T#7[0x000014f8] INFO  - MainJsEngine compiling and storing script rstScript
07-24-2017 14:45:50 T#7[0x000014f8] ERROR - Monitor: Executor - Script error detected in ExpectedStitchPositions - Image Processing : ExpectedStitchPositions
07-24-2017 14:45:50 T#7[0x000014f8] ERROR - Monitor: Executor - Halting - Image Processing : ExpectedStitchPositions
07-24-2017 14:45:57 T#15[0x00001b84] INFO  - Task exec mode: 8
07-24-2017 14:45:57 T#7[0x000014f8] INFO  - MainJsEngine compiling script ExpectedStitchPositions
07-24-2017 14:45:57 T#7[0x000014f8] INFO  - MainJsEngine executing script ExpectedStitchPositions, GC off
07-24-2017 14:46:00 T#2[0x00001d68] INFO  - Task exec mode: 8
07-24-2017 14:46:00 T#7[0x000014f8] INFO  - MainJsEngine compiling and dropping script ExpectedStitchPositions
07-24-2017 14:51:11 T#2[0x00001d68] INFO  - Task exec mode: 7
07-24-2017 14:51:11 T#7[0x000014f8] INFO  - MainJsEngine removing compiled rstVariables
07-24-2017 14:51:11 T#7[0x000014f8] INFO  - MainJsEngine removing compiled AlasdairVariableReset
07-24-2017 14:51:11 T#7[0x000014f8] INFO  - MainJsEngine removing compiled SetCoordinates
07-24-2017 14:51:11 T#7[0x000014f8] INFO  - MainJsEngine removing compiled imgRetrieveScript
07-24-2017 14:51:11 T#7[0x000014f8] INFO  - MainJsEngine removing compiled SetUpScript1
07-24-2017 14:51:11 T#7[0x000014f8] INFO  - MainJsEngine removing compiled LightingCoordsScript1
07-24-2017 14:51:11 T#7[0x000014f8] INFO  - MainJsEngine removing compiled lightInspectScript1
07-24-2017 14:51:11 T#7[0x000014f8] INFO  - MainJsEngine removing compiled EdgeDetCoordSet1
07-24-2017 14:51:11 T#7[0x000014f8] INFO  - MainJsEngine removing compiled StitchesInOverlap1
07-24-2017 14:51:11 T#7[0x000014f8] INFO  - MainJsEngine removing compiled SetUpScript2
07-24-2017 14:51:11 T#7[0x000014f8] INFO  - MainJsEngine removing compiled EdgeDetCoordSet2
07-24-2017 14:51:11 T#7[0x000014f8] INFO  - MainJsEngine removing compiled StitchesInOverlap2
07-24-2017 14:51:11 T#7[0x000014f8] INFO  - MainJsEngine removing compiled SetUpScript3
07-24-2017 14:51:11 T#7[0x000014f8] INFO  - MainJsEngine removing compiled StitchesInOverlap3
07-24-2017 14:51:11 T#7[0x000014f8] INFO  - MainJsEngine removing compiled SetUpScript4
07-24-2017 14:51:11 T#7[0x000014f8] INFO  - MainJsEngine removing compiled StitchesInOverlap4
07-24-2017 14:51:11 T#7[0x000014f8] INFO  - MainJsEngine removing compiled SetUpScript5
07-24-2017 14:51:11 T#7[0x000014f8] INFO  - MainJsEngine removing compiled StitchesInOverlap5
07-24-2017 14:51:11 T#7[0x000014f8] INFO  - MainJsEngine removing compiled SetUpScript6
07-24-2017 14:51:11 T#7[0x000014f8] INFO  - MainJsEngine removing compiled StitchesInOverlap6
07-24-2017 14:51:11 T#7[0x000014f8] INFO  - MainJsEngine removing compiled SetUpScript7
07-24-2017 14:51:11 T#7[0x000014f8] INFO  - MainJsEngine removing compiled StitchesInOverlap7
07-24-2017 14:51:11 T#7[0x000014f8] INFO  - MainJsEngine removing compiled SetUpScript8
07-24-2017 14:51:11 T#7[0x000014f8] INFO  - MainJsEngine removing compiled StitchesInOverlap8
07-24-2017 14:51:11 T#7[0x000014f8] INFO  - MainJsEngine removing compiled SetUpScript9
07-24-2017 14:51:11 T#7[0x000014f8] INFO  - MainJsEngine removing compiled StitchesInOverlap9
07-24-2017 14:51:11 T#7[0x000014f8] INFO  - MainJsEngine removing compiled SetUpScript10
07-24-2017 14:51:11 T#7[0x000014f8] INFO  - MainJsEngine removing compiled StitchesInOverlap10
07-24-2017 14:51:11 T#7[0x000014f8] INFO  - MainJsEngine removing compiled ExpectedStitchPositions
07-24-2017 14:51:11 T#7[0x000014f8] INFO  - MainJsEngine removing compiled scriptA
07-24-2017 14:51:11 T#7[0x000014f8] INFO  - MainJsEngine removing compiled rstInspection
07-24-2017 14:51:11 T#7[0x000014f8] INFO  - MainJsEngine removing compiled imgAttributes
07-24-2017 14:51:11 T#7[0x000014f8] INFO  - MainJsEngine removing compiled lightInspectScript
07-24-2017 14:51:11 T#7[0x000014f8] INFO  - MainJsEngine removing compiled edgeDetCoordScript
07-24-2017 14:51:11 T#7[0x000014f8] INFO  - MainJsEngine removing compiled setCamRoiCoords
07-24-2017 14:51:11 T#7[0x000014f8] INFO  - MainJsEngine removing compiled rstStitchVar
07-24-2017 14:51:11 T#7[0x000014f8] INFO  - MainJsEngine removing compiled slitResultScript
07-24-2017 14:51:11 T#7[0x000014f8] INFO  - MainJsEngine removing compiled manStitchDetection
07-24-2017 14:51:11 T#7[0x000014f8] INFO  - MainJsEngine removing compiled setWhileLoop
07-24-2017 14:51:11 T#7[0x000014f8] INFO  - MainJsEngine removing compiled setExpectedLocAnno
07-24-2017 14:51:11 T#7[0x000014f8] INFO  - MainJsEngine removing compiled failImgScript
07-24-2017 14:51:11 T#7[0x000014f8] INFO  - MainJsEngine removing compiled staggerAnnoScript
07-24-2017 14:51:11 T#7[0x000014f8] INFO  - MainJsEngine removing compiled String Centre Manipulation_A
07-24-2017 14:51:11 T#7[0x000014f8] INFO  - MainJsEngine removing compiled String Centre Manipulation
07-24-2017 14:51:11 T#7[0x000014f8] INFO  - MainJsEngine removing compiled overviewScript
07-24-2017 14:51:11 T#7[0x000014f8] INFO  - MainJsEngine removing compiled ovScript
07-24-2017 14:51:11 T#7[0x000014f8] INFO  - MainJsEngine removing compiled resultScript
07-24-2017 14:51:11 T#7[0x000014f8] INFO  - MainJsEngine removing compiled statsScript
07-24-2017 14:51:11 T#7[0x000014f8] INFO  - MainJsEngine removing compiled setFailImgName
07-24-2017 14:51:11 T#7[0x000014f8] INFO  - MainJsEngine removing compiled setLogImgName
07-24-2017 14:51:11 T#7[0x000014f8] INFO  - MainJsEngine removing compiled startup
07-24-2017 14:51:11 T#7[0x000014f8] INFO  - MainJsEngine removing compiled rstScript
07-24-2017 14:51:11 T#2[0x00001d68] INFO  - Plugin manager terminated
07-24-2017 14:51:11 T#2[0x00001d68] INFO  - Engine objects terminated
07-24-2017 14:51:11 T#2[0x00001d68] INFO  - Engine objects deleted
07-24-2017 14:51:11 T#2[0x00001d68] INFO  - --- Vision Engine shutdown succeeded ---
07-24-2017 14:51:11 T#2[0x00001d68] INFO  - Beginning application shutdown
07-24-2017 14:51:11 T#2[0x00001d68] INFO  - Application shutdown succeeded
07-24-2017 14:51:11 T#2[0x00001d68] INFO  - ---------------- END ---------------
07-24-2017 14:51:13 T#2[0x000025d8] INFO  - --------------- START --------------
07-24-2017 14:51:13 T#2[0x000025d8] INFO  - Beginning application initialization
07-24-2017 14:51:14 T#2[0x000025d8] INFO  - -------- Vision Engine starting --------
07-24-2017 14:51:14 T#2[0x000025d8] INFO  - Engine: v.7020200-3704 [10/20/2014 @ 00:49:09], 64-bit, toolset v.1400
07-24-2017 14:52:50 T#2[0x000027d8] INFO  - --------------- START --------------
07-24-2017 14:52:50 T#2[0x000027d8] INFO  - Beginning application initialization
07-24-2017 14:52:51 T#2[0x000027d8] INFO  - -------- Vision Engine starting --------
07-24-2017 14:52:51 T#2[0x000027d8] INFO  - Engine: v.7020200-3704 [10/20/2014 @ 00:49:09], 64-bit, toolset v.1400
07-24-2017 14:59:14 T#2[0x000025d8] INFO  - Engine starting: 1000
07-24-2017 14:59:14 T#2[0x000025d8] INFO  - Engine started, will initialize
07-24-2017 14:59:14 T#2[0x000027d8] INFO  - Engine starting: 1000
07-24-2017 14:59:25 T#2[0x000025d8] INFO  - Loading plugins starts
07-24-2017 14:59:25 T#2[0x000025d8] INFO  - Internal plugins initialized
07-24-2017 14:59:25 T#2[0x000025d8] INFO  - Plugins loaded
07-24-2017 14:59:25 T#2[0x000025d8] INFO  - Plugins initialized
07-24-2017 14:59:25 T#2[0x000025d8] INFO  - Loading plugins finished
07-24-2017 14:59:25 T#2[0x000025d8] INFO  - Engine initialized
07-24-2017 14:59:25 T#2[0x000027d8] INFO  - Engine started, will initialize
07-24-2017 14:59:28 T#2[0x000027d8] INFO  - Loading plugins starts
07-24-2017 14:59:28 T#2[0x000027d8] INFO  - Internal plugins initialized
07-24-2017 14:59:28 T#2[0x000027d8] INFO  - Plugins loaded
07-24-2017 14:59:28 T#2[0x000027d8] INFO  - Plugins initialized
07-24-2017 14:59:28 T#2[0x000027d8] INFO  - Loading plugins finished
07-24-2017 14:59:28 T#2[0x000027d8] INFO  - Engine initialized
07-24-2017 14:59:28 T#2[0x000025d8] INFO  - Load starts: C:\olmec\ivsfiles\Station1.ivs
07-24-2017 14:59:28 T#2[0x000025d8] INFO  - Task exec mode: 6
07-24-2017 14:59:28 T#2[0x000025d8] INFO  - Loading objects & program
07-24-2017 14:59:35 T#2[0x000025d8] INFO  - Loaded all from file
07-24-2017 14:59:35 T#2[0x000025d8] INFO  - Load post-proc start
07-24-2017 14:59:35 T#2[0x000025d8] INFO  - Load post-proc end
07-24-2017 14:59:35 T#2[0x000025d8] INFO  - Load finished: C:\olmec\ivsfiles\Station1.ivs
07-24-2017 14:59:35 T#2[0x000027d8] INFO  - Load starts: C:\olmec\ivsfiles\Station1.ivs
07-24-2017 14:59:35 T#2[0x000027d8] INFO  - Task exec mode: 6
07-24-2017 14:59:35 T#2[0x000027d8] INFO  - Loading objects & program
07-24-2017 14:59:35 T#2[0x000025d8] INFO  - Application initialization succeeded
07-24-2017 14:59:39 T#2[0x000027d8] INFO  - Loaded all from file
07-24-2017 14:59:39 T#2[0x000027d8] INFO  - Load post-proc start
07-24-2017 14:59:39 T#2[0x000027d8] INFO  - Load post-proc end
07-24-2017 14:59:39 T#2[0x000027d8] INFO  - Load finished: C:\olmec\ivsfiles\Station1.ivs
07-24-2017 14:59:39 T#2[0x000027d8] INFO  - Application initialization succeeded
07-24-2017 14:59:44 T#2[0x000027d8] INFO  - Task exec mode: 7
07-24-2017 14:59:44 T#2[0x000027d8] INFO  - Plugin manager terminated
07-24-2017 14:59:44 T#2[0x000027d8] INFO  - Engine objects terminated
07-24-2017 14:59:44 T#2[0x000027d8] INFO  - Engine objects deleted
07-24-2017 14:59:44 T#2[0x000027d8] INFO  - --- Vision Engine shutdown succeeded ---
07-24-2017 14:59:44 T#2[0x000027d8] INFO  - Beginning application shutdown
07-24-2017 14:59:44 T#2[0x000027d8] INFO  - Application shutdown succeeded
07-24-2017 14:59:44 T#2[0x000027d8] INFO  - ---------------- END ---------------
07-24-2017 14:59:46 T#2[0x000025d8] INFO  - Set exec mode:  0
07-24-2017 14:59:46 T#7[0x000024f0] ERROR - Monitor: Executor - Error detected in TiledCamera - Image Processing : TiledCamera
07-24-2017 14:59:46 T#7[0x000024f0] ERROR - Monitor: Executor - Halting - Image Processing : TiledCamera
07-24-2017 15:00:22 T#2[0x000025d8] INFO  - Set exec mode:  0
07-24-2017 15:00:22 T#7[0x000024f0] INFO  - MainJsEngine compiling and storing script rstVariables
07-24-2017 15:00:22 T#7[0x000024f0] INFO  - MainJsEngine enabled execution
07-24-2017 15:00:22 T#7[0x000024f0] INFO  - MainJsEngine compiling and storing script setCamExtractCoords
07-24-2017 15:00:22 T#7[0x000024f0] INFO  - MainJsEngine compiling and storing script imgRetrieveScript
07-24-2017 15:00:22 T#7[0x000024f0] INFO  - MainJsEngine compiling and storing script rstInspection
07-24-2017 15:00:22 T#7[0x000024f0] INFO  - MainJsEngine compiling and storing script imgAttributes
07-24-2017 15:00:22 T#7[0x000024f0] INFO  - MainJsEngine compiling and storing script lightInspectScript
07-24-2017 15:00:22 T#7[0x000024f0] INFO  - MainJsEngine compiling and storing script edgeDetCoordScript
07-24-2017 15:00:22 T#7[0x000024f0] INFO  - MainJsEngine compiling and storing script setCamRoiCoords
07-24-2017 15:00:22 T#7[0x000024f0] INFO  - MainJsEngine compiling and storing script manStitchDetection
07-24-2017 15:00:22 T#7[0x000024f0] INFO  - MainJsEngine compiling and storing script resultScript
07-24-2017 15:00:22 T#7[0x000024f0] INFO  - MainJsEngine compiling and storing script statsScript
07-24-2017 15:00:22 T#7[0x000024f0] INFO  - MainJsEngine compiling and storing script setWhileLoop
07-24-2017 15:00:22 T#7[0x000024f0] INFO  - MainJsEngine compiling and storing script setExpectedLocAnno
07-24-2017 15:00:22 T#7[0x000024f0] INFO  - MainJsEngine compiling and storing script failImgScript
07-24-2017 15:00:22 T#7[0x000024f0] INFO  - MainJsEngine compiling and storing script staggerAnnoScript
07-24-2017 15:00:22 T#7[0x000024f0] INFO  - MainJsEngine compiling and storing script String Centre Manipulation_A
07-24-2017 15:00:22 T#7[0x000024f0] INFO  - MainJsEngine compiling and storing script String Centre Manipulation
07-24-2017 15:00:22 T#7[0x000024f0] INFO  - MainJsEngine compiling and storing script overviewScript
07-24-2017 15:00:22 T#7[0x000024f0] INFO  - MainJsEngine compiling and storing script ovScript
07-24-2017 15:00:22 T#7[0x000024f0] INFO  - MainJsEngine running GC
07-24-2017 15:00:32 T#2[0x000025d8] INFO  - Set exec mode:  0
07-24-2017 15:00:33 T#7[0x000024f0] INFO  - MainJsEngine running GC
07-24-2017 15:00:33 T#2[0x000025d8] INFO  - Set exec mode:  0
07-24-2017 15:00:33 T#7[0x000024f0] INFO  - MainJsEngine running GC
07-24-2017 15:00:33 T#2[0x000025d8] INFO  - Set exec mode:  0
07-24-2017 15:00:34 T#7[0x000024f0] INFO  - MainJsEngine running GC
07-24-2017 15:00:34 T#2[0x000025d8] INFO  - Set exec mode:  0
07-24-2017 15:00:34 T#7[0x000024f0] INFO  - MainJsEngine running GC
07-24-2017 15:00:35 T#2[0x000025d8] INFO  - Set exec mode:  0
07-24-2017 15:00:35 T#7[0x000024f0] INFO  - MainJsEngine running GC
07-24-2017 15:01:06 T#2[0x000025d8] INFO  - Set exec mode:  0
07-24-2017 15:01:06 T#7[0x000024f0] INFO  - MainJsEngine running GC
07-24-2017 15:01:06 T#2[0x000025d8] INFO  - Set exec mode:  0
07-24-2017 15:01:07 T#7[0x000024f0] INFO  - MainJsEngine running GC
07-24-2017 15:01:08 T#2[0x000025d8] INFO  - Collected objects
07-24-2017 15:01:08 T#2[0x000025d8] INFO  - Collected program
07-24-2017 15:01:08 T#2[0x000025d8] INFO  - Saved all to file
07-24-2017 15:01:11 T#2[0x000025d8] INFO  - Task exec mode: 7
07-24-2017 15:01:11 T#7[0x000024f0] INFO  - MainJsEngine removing compiled rstVariables
07-24-2017 15:01:11 T#7[0x000024f0] INFO  - MainJsEngine removing compiled setCamExtractCoords
07-24-2017 15:01:11 T#7[0x000024f0] INFO  - MainJsEngine removing compiled imgRetrieveScript
07-24-2017 15:01:11 T#7[0x000024f0] INFO  - MainJsEngine removing compiled rstInspection
07-24-2017 15:01:11 T#7[0x000024f0] INFO  - MainJsEngine removing compiled imgAttributes
07-24-2017 15:01:11 T#7[0x000024f0] INFO  - MainJsEngine removing compiled lightInspectScript
07-24-2017 15:01:11 T#7[0x000024f0] INFO  - MainJsEngine removing compiled edgeDetCoordScript
07-24-2017 15:01:11 T#7[0x000024f0] INFO  - MainJsEngine removing compiled setCamRoiCoords
07-24-2017 15:01:11 T#7[0x000024f0] INFO  - MainJsEngine removing compiled rstStitchVar
07-24-2017 15:01:11 T#7[0x000024f0] INFO  - MainJsEngine removing compiled slitResultScript
07-24-2017 15:01:11 T#7[0x000024f0] INFO  - MainJsEngine removing compiled manStitchDetection
07-24-2017 15:01:11 T#7[0x000024f0] INFO  - MainJsEngine removing compiled setWhileLoop
07-24-2017 15:01:11 T#7[0x000024f0] INFO  - MainJsEngine removing compiled setExpectedLocAnno
07-24-2017 15:01:11 T#7[0x000024f0] INFO  - MainJsEngine removing compiled failImgScript
07-24-2017 15:01:11 T#7[0x000024f0] INFO  - MainJsEngine removing compiled staggerAnnoScript
07-24-2017 15:01:11 T#7[0x000024f0] INFO  - MainJsEngine removing compiled String Centre Manipulation_A
07-24-2017 15:01:11 T#7[0x000024f0] INFO  - MainJsEngine removing compiled String Centre Manipulation
07-24-2017 15:01:11 T#7[0x000024f0] INFO  - MainJsEngine removing compiled overviewScript
07-24-2017 15:01:11 T#7[0x000024f0] INFO  - MainJsEngine removing compiled ovScript
07-24-2017 15:01:11 T#7[0x000024f0] INFO  - MainJsEngine removing compiled resultScript
07-24-2017 15:01:11 T#7[0x000024f0] INFO  - MainJsEngine removing compiled statsScript
07-24-2017 15:01:11 T#7[0x000024f0] INFO  - MainJsEngine removing compiled setFailImgName
07-24-2017 15:01:11 T#7[0x000024f0] INFO  - MainJsEngine removing compiled setLogImgName
07-24-2017 15:01:11 T#7[0x000024f0] INFO  - MainJsEngine removing compiled startup
07-24-2017 15:01:11 T#7[0x000024f0] INFO  - MainJsEngine removing compiled rstScript
07-24-2017 15:01:11 T#2[0x000025d8] INFO  - Plugin manager terminated
07-24-2017 15:01:11 T#2[0x000025d8] INFO  - Engine objects terminated
07-24-2017 15:01:11 T#2[0x000025d8] INFO  - Engine objects deleted
07-24-2017 15:01:11 T#2[0x000025d8] INFO  - --- Vision Engine shutdown succeeded ---
07-24-2017 15:01:11 T#2[0x000025d8] INFO  - Beginning application shutdown
07-24-2017 15:01:11 T#2[0x000025d8] INFO  - Application shutdown succeeded
07-24-2017 15:01:11 T#2[0x000025d8] INFO  - ---------------- END ---------------
07-24-2017 15:34:36 T#2[0x00002a3c] INFO  - --------------- START --------------
07-24-2017 15:34:36 T#2[0x00002a3c] INFO  - Beginning application initialization
07-24-2017 15:34:37 T#2[0x00002a3c] INFO  - -------- Vision Engine starting --------
07-24-2017 15:34:37 T#2[0x00002a3c] INFO  - Engine: v.7020200-3704 [10/20/2014 @ 00:49:09], 64-bit, toolset v.1400
07-24-2017 15:42:37 T#2[0x00002a3c] INFO  - Engine starting: 1000
07-24-2017 15:42:37 T#2[0x00002a3c] INFO  - Engine started, will initialize
07-24-2017 15:44:13 T#2[0x00002a3c] INFO  - Loading plugins starts
07-24-2017 15:44:13 T#2[0x00002a3c] INFO  - Internal plugins initialized
07-24-2017 15:44:13 T#2[0x00002a3c] INFO  - Plugins loaded
07-24-2017 15:44:13 T#2[0x00002a3c] INFO  - Plugins initialized
07-24-2017 15:44:13 T#2[0x00002a3c] INFO  - Loading plugins finished
07-24-2017 15:44:13 T#2[0x00002a3c] INFO  - Engine initialized
07-24-2017 15:44:13 T#2[0x00002a3c] INFO  - Load starts: C:\olmec\ivsfiles\Station1.ivs
07-24-2017 15:44:13 T#2[0x00002a3c] INFO  - Task exec mode: 6
07-24-2017 15:44:13 T#2[0x00002a3c] INFO  - Loading objects & program
07-24-2017 15:44:13 T#2[0x00002a3c] INFO  - Loaded all from file
07-24-2017 15:44:13 T#2[0x00002a3c] INFO  - Load post-proc start
07-24-2017 15:44:13 T#2[0x00002a3c] INFO  - Load post-proc end
07-24-2017 15:44:13 T#2[0x00002a3c] INFO  - Load finished: C:\olmec\ivsfiles\Station1.ivs
07-24-2017 15:44:13 T#2[0x00002a3c] INFO  - Application initialization succeeded
07-24-2017 15:44:25 T#2[0x00002a3c] INFO  - Collected objects
07-24-2017 15:44:25 T#2[0x00002a3c] INFO  - Collected program
07-24-2017 15:44:25 T#2[0x00002a3c] INFO  - Saved all to file
07-24-2017 15:45:14 T#2[0x00002a3c] INFO  - Set exec mode:  0
07-24-2017 15:45:14 T#7[0x00001e24] INFO  - MainJsEngine compiling and storing script rstVariables
07-24-2017 15:45:14 T#7[0x00001e24] INFO  - MainJsEngine enabled execution
07-24-2017 15:45:14 T#7[0x00001e24] INFO  - MainJsEngine compiling and storing script setCamExtractCoords
07-24-2017 15:45:14 T#7[0x00001e24] INFO  - MainJsEngine compiling and storing script imgRetrieveScript
07-24-2017 15:45:14 T#7[0x00001e24] INFO  - MainJsEngine compiling and storing script rstInspection
07-24-2017 15:45:14 T#7[0x00001e24] INFO  - MainJsEngine compiling and storing script imgAttributes
07-24-2017 15:45:14 T#7[0x00001e24] INFO  - MainJsEngine compiling and storing script lightInspectScript
07-24-2017 15:45:14 T#7[0x00001e24] INFO  - MainJsEngine compiling and storing script edgeDetCoordScript
07-24-2017 15:45:14 T#7[0x00001e24] INFO  - MainJsEngine compiling and storing script setCamRoiCoords
07-24-2017 15:45:14 T#7[0x00001e24] INFO  - MainJsEngine compiling and storing script manStitchDetection
07-24-2017 15:45:14 T#7[0x00001e24] INFO  - MainJsEngine compiling and storing script resultScript
07-24-2017 15:45:14 T#7[0x00001e24] INFO  - MainJsEngine compiling and storing script statsScript
07-24-2017 15:45:14 T#7[0x00001e24] INFO  - MainJsEngine compiling and storing script setWhileLoop
07-24-2017 15:45:14 T#7[0x00001e24] INFO  - MainJsEngine compiling and storing script setExpectedLocAnno
07-24-2017 15:45:14 T#7[0x00001e24] INFO  - MainJsEngine compiling and storing script failImgScript
07-24-2017 15:45:14 T#7[0x00001e24] INFO  - MainJsEngine compiling and storing script staggerAnnoScript
07-24-2017 15:45:14 T#7[0x00001e24] INFO  - MainJsEngine compiling and storing script String Centre Manipulation_A
07-24-2017 15:45:14 T#7[0x00001e24] INFO  - MainJsEngine compiling and storing script String Centre Manipulation
07-24-2017 15:45:14 T#7[0x00001e24] INFO  - MainJsEngine compiling and storing script overviewScript
07-24-2017 15:45:14 T#7[0x00001e24] INFO  - MainJsEngine compiling and storing script ovScript
07-24-2017 15:45:14 T#7[0x00001e24] INFO  - MainJsEngine running GC
07-24-2017 16:04:25 T#2[0x00002a3c] INFO  - Collected objects
07-24-2017 16:04:25 T#2[0x00002a3c] INFO  - Collected program
07-24-2017 16:04:25 T#2[0x00002a3c] INFO  - Saved all to file
07-24-2017 16:12:58 T#2[0x00002a3c] INFO  - Collected objects
07-24-2017 16:12:58 T#2[0x00002a3c] INFO  - Collected program
07-24-2017 16:12:58 T#2[0x00002a3c] INFO  - Saved all to file
07-24-2017 16:13:00 T#2[0x00002a3c] INFO  - Task exec mode: 7
07-24-2017 16:13:00 T#7[0x00001e24] INFO  - MainJsEngine removing compiled rstVariables
07-24-2017 16:13:00 T#7[0x00001e24] INFO  - MainJsEngine removing compiled setCamExtractCoords
07-24-2017 16:13:00 T#7[0x00001e24] INFO  - MainJsEngine removing compiled imgRetrieveScript
07-24-2017 16:13:00 T#7[0x00001e24] INFO  - MainJsEngine removing compiled rstInspection
07-24-2017 16:13:00 T#7[0x00001e24] INFO  - MainJsEngine removing compiled imgAttributes
07-24-2017 16:13:00 T#7[0x00001e24] INFO  - MainJsEngine removing compiled lightInspectScript
07-24-2017 16:13:00 T#7[0x00001e24] INFO  - MainJsEngine removing compiled edgeDetCoordScript
07-24-2017 16:13:00 T#7[0x00001e24] INFO  - MainJsEngine removing compiled setCamRoiCoords
07-24-2017 16:13:00 T#7[0x00001e24] INFO  - MainJsEngine removing compiled rstStitchVar
07-24-2017 16:13:00 T#7[0x00001e24] INFO  - MainJsEngine removing compiled slitResultScript
07-24-2017 16:13:00 T#7[0x00001e24] INFO  - MainJsEngine removing compiled manStitchDetection
07-24-2017 16:13:00 T#7[0x00001e24] INFO  - MainJsEngine removing compiled setWhileLoop
07-24-2017 16:13:00 T#7[0x00001e24] INFO  - MainJsEngine removing compiled setExpectedLocAnno
07-24-2017 16:13:00 T#7[0x00001e24] INFO  - MainJsEngine removing compiled failImgScript
07-24-2017 16:13:00 T#7[0x00001e24] INFO  - MainJsEngine removing compiled staggerAnnoScript
07-24-2017 16:13:00 T#7[0x00001e24] INFO  - MainJsEngine removing compiled String Centre Manipulation_A
07-24-2017 16:13:00 T#7[0x00001e24] INFO  - MainJsEngine removing compiled String Centre Manipulation
07-24-2017 16:13:00 T#7[0x00001e24] INFO  - MainJsEngine removing compiled overviewScript
07-24-2017 16:13:00 T#7[0x00001e24] INFO  - MainJsEngine removing compiled ovScript
07-24-2017 16:13:00 T#7[0x00001e24] INFO  - MainJsEngine removing compiled resultScript
07-24-2017 16:13:00 T#7[0x00001e24] INFO  - MainJsEngine removing compiled statsScript
07-24-2017 16:13:00 T#7[0x00001e24] INFO  - MainJsEngine removing compiled setFailImgName
07-24-2017 16:13:00 T#7[0x00001e24] INFO  - MainJsEngine removing compiled setLogImgName
07-24-2017 16:13:00 T#7[0x00001e24] INFO  - MainJsEngine removing compiled startup
07-24-2017 16:13:00 T#7[0x00001e24] INFO  - MainJsEngine removing compiled rstScript
07-24-2017 16:13:00 T#2[0x00002a3c] INFO  - Plugin manager terminated
07-24-2017 16:13:00 T#2[0x00002a3c] INFO  - Engine objects terminated
07-24-2017 16:13:00 T#2[0x00002a3c] INFO  - Engine objects deleted
07-24-2017 16:13:00 T#2[0x00002a3c] INFO  - --- Vision Engine shutdown succeeded ---
07-24-2017 16:13:01 T#2[0x00002a3c] INFO  - Beginning application shutdown
07-24-2017 16:13:01 T#2[0x00002a3c] INFO  - Application shutdown succeeded
07-24-2017 16:13:01 T#2[0x00002a3c] INFO  - ---------------- END ---------------
07-24-2017 16:29:02 T#2[0x000022cc] INFO  - --------------- START --------------
07-24-2017 16:29:02 T#2[0x000022cc] INFO  - Beginning application initialization
07-24-2017 16:29:03 T#2[0x000022cc] INFO  - -------- Vision Engine starting --------
07-24-2017 16:29:03 T#2[0x000022cc] INFO  - Engine: v.7020200-3704 [10/20/2014 @ 00:49:09], 64-bit, toolset v.1400
