Rresult,Overall Result1,BOOL
Spass,Total Pass,INT
Sfail,Total Fail,INT
SedgeFail,Edge Location Failures,INT
SIfile_Name,Last Fail Name,STRING
systemStopwatch,Process Time,DOUBLE
EXT_07,Overall Result777777777777777,BOOL