MainImg,Full View
InspectionOverview,Results
Camera1,Camera 1
Camera2,Camera 2
Camera3,Camera 3
Camera4,Camera 4
Camera5,Camera 5
Cmaera6,Camera 6
Camera7,Camera 7
Camera8,Camera 8
Camera9,Camera 9
Camera10,Camera 10
