1,1,Station 1,Local,10.10.1.1,,drivers1.ini,C://Olmec//Stats//Station1.csv,C://Olmec//SystemConfig//Station1.csv,C://Olmec//ivsfiles//Station1.csv,C://Olmec//images//Station1,C://Olmec//Recipe//Station1.csv,C://Olmec//ImageWindows//Station1.csv
2,2,Station 2,Local,10.10.2.1,,drivers2.ini,C://Olmec//Stats//Station2.csv,C://Olmec//SystemConfig//Station2.csv,C://Olmec//ivsfiles//Station2.csv,C://Olmec//images//Station2,C://Olmec//Recipe//Station2.csv,C://Olmec//ImageWindows//Station2.csv
3,3,Station 3,Local,10.10.3.1,,drivers3.ini,C://Olmec//Stats//Station3.csv,C://Olmec//SystemConfig//Station3.csv,C://Olmec//ivsfiles//Station3.csv,C://Olmec//images//Station3,C://Olmec//Recipe//Station3.csv,C://Olmec//ImageWindows//Station3.csv
4,4,Station 4,Local,10.10.4.1,,drivers4.ini,C://Olmec//Stats//Station4.csv,C://Olmec//SystemConfig//Station4.csv,C://Olmec//ivsfiles//Station4.csv,C://Olmec//images//Station4,C://Olmec//Recipe//Station4.csv,C://Olmec//ImageWindows//Station4.csv
5,5,Station 5,Local,10.10.5.1,,drivers5.ini,C://Olmec//Stats//Station5.csv,C://Olmec//SystemConfig//Station5.csv,C://Olmec//ivsfiles//Station5.csv,C://Olmec//images//Station5,C://Olmec//Recipe//Station5.csv,C://Olmec//ImageWindows//Station5.csv
6,6,Station 6,Local,10.10.6.1,,drivers6.ini,C://Olmec//Stats//Station6.csv,C://Olmec//SystemConfig//Station6.csv,C://Olmec//ivsfiles//Station6.csv,C://Olmec//images//Station6,C://Olmec//Recipe//Station6.csv,C://Olmec//ImageWindows//Station6.csv
7,7,Station 7,Local,10.10.7.1,,drivers7.ini,C://Olmec//Stats//Station7.csv,C://Olmec//SystemConfig//Station7.csv,C://Olmec//ivsfiles//Station7.csv,C://Olmec//images//Station7,C://Olmec//Recipe//Station7.csv,C://Olmec//ImageWindows//Station7.csv
8,8,Station 8,Local,192.168.16.20,5000,drivers8.ini,C://Olmec//Stats//Station8.csv,C://Olmec//SystemConfig//Station8.csv,C://Olmec//ivsfiles//Station8.csv,C://Olmec//images//Station8,C://Olmec//Recipe//Station8.csv,C://Olmec//ImageWindows//Station8.csv
9,9,Station 9,Disabled,192.168.16.20,5000,
10,10,Station 10,Disabled,192.168.16.20,5001,
11,11,Station 11,Disabled,,,
12,12,Station 12,Disabled,,,
13,13,Station 13,Disabled,192.168.16.21,5000,
14,14,Station 14,Disabled,192.168.16.21,5001,
15,15,Station 15,Disabled,,,
16,16,Station 16,Disabled,,,
